<?xml version="1.0" encoding="utf-8"?>
<!-- Generator: Adobe Illustrator 23.1.0, SVG Export Plug-In . SVG Version: 6.00 Build 0)  -->
<svg version="1.0" id="Слой_1" xmlns="http://www.w3.org/2000/svg" xmlns:xlink="http://www.w3.org/1999/xlink" x="0px" y="0px"
	 viewBox="0 0 30 30" style="enable-background:new 0 0 30 30;" xml:space="preserve">
<style type="text/css">
	.st0{fill:#000300;}
</style>
<g>
	<path class="st0" d="M22,9.2H10c-0.6,0-1,0.4-1,1v8v5l4-4h9c0.6,0,1-0.4,1-1v-8C23,9.6,22.6,9.2,22,9.2 M22,18.2h-9.5L10,20.7V10.2
		h12V18.2z"/>
	<path class="st0" d="M21,8.2c0-0.6-0.4-1-1-1H8c-0.6,0-1,0.4-1,1v8v5l1-1v-1.5V8.2h12H21z"/>
</g>
</svg>
